[
    {
        "cid": "8",
        "category_name": "Funny",
        "category_image": "83030.png",
        "start_color": "EB8B60",
        "end_color": "C56185",
        "show_on_home": "1",
        "status": "1"
    },
    {
        "cid": "10",
        "category_name": "Inspiration",
        "category_image": "73539.png",
        "start_color": "EC6757",
        "end_color": "CB165D",
        "show_on_home": "1",
        "status": "1"
    },
    {
        "cid": "12",
        "category_name": "Dancing",
        "category_image": "54600.png",
        "start_color": "3FBEA1",
        "end_color": "1C5C9D",
        "show_on_home": "1",
        "status": "1"
    },
    {
        "cid": "13",
        "category_name": "Romance",
        "category_image": "65618.png",
        "start_color": "F9503C",
        "end_color": "E42C6A",
        "show_on_home": "1",
        "status": "1"
    },
    {
        "cid": "14",
        "category_name": "Friendship",
        "category_image": "97351.png",
        "start_color": "FF3E2E",
        "end_color": "FFA95C",
        "show_on_home": "1",
        "status": "1"
    },
    {
        "cid": "20",
        "category_name": "Sad",
        "category_image": "94954.png",
        "start_color": "5E21FF",
        "end_color": "987DFF",
        "show_on_home": "0",
        "status": "1"
    },
    {
        "cid": "21",
        "category_name": "Love",
        "category_image": "73774.png",
        "start_color": "C23156",
        "end_color": "7F3581",
        "show_on_home": "1",
        "status": "1"
    },
    {
        "cid": "26",
        "category_name": "Birthday",
        "category_image": "69184.png",
        "start_color": "32B2C2",
        "end_color": "2A89DE",
        "show_on_home": "1",
        "status": "1"
    },
    {
        "cid": "71",
        "category_name": "Lyrical",
        "category_image": "",
        "start_color": "FF2319",
        "end_color": "6772FF",
        "show_on_home": "0",
        "status": "1"
    },
    {
        "cid": "72",
        "category_name": "Mahadev",
        "category_image": "",
        "start_color": "FF2319",
        "end_color": "6772FF",
        "show_on_home": "0",
        "status": "1"
    },
    {
        "cid": "73",
        "category_name": "Love",
        "category_image": "",
        "start_color": "FF2319",
        "end_color": "6772FF",
        "show_on_home": "0",
        "status": "1"
    },
    {
        "cid": "74",
        "category_name": "Sad",
        "category_image": "",
        "start_color": "FF2319",
        "end_color": "6772FF",
        "show_on_home": "0",
        "status": "1"
    },
    {
        "cid": "75",
        "category_name": "Breakup",
        "category_image": "",
        "start_color": "FF2319",
        "end_color": "6772FF",
        "show_on_home": "0",
        "status": "1"
    },
    {
        "cid": "76",
        "category_name": "Hayat & Murat",
        "category_image": "",
        "start_color": "FF2319",
        "end_color": "6772FF",
        "show_on_home": "0",
        "status": "1"
    },
    {
        "cid": "77",
        "category_name": "Marathi",
        "category_image": "",
        "start_color": "FF2319",
        "end_color": "6772FF",
        "show_on_home": "0",
        "status": "1"
    },
    {
        "cid": "78",
        "category_name": "Punjabi",
        "category_image": "",
        "start_color": "FF2319",
        "end_color": "6772FF",
        "show_on_home": "0",
        "status": "1"
    },
    {
        "cid": "79",
        "category_name": "Tamil",
        "category_image": "",
        "start_color": "FF2319",
        "end_color": "6772FF",
        "show_on_home": "0",
        "status": "1"
    },
    {
        "cid": "80",
        "category_name": "Gujarati",
        "category_image": "",
        "start_color": "FF2319",
        "end_color": "6772FF",
        "show_on_home": "0",
        "status": "1"
    },
    {
        "cid": "81",
        "category_name": "Aagri Koli",
        "category_image": "",
        "start_color": "FF2319",
        "end_color": "6772FF",
        "show_on_home": "0",
        "status": "1"
    },
    {
        "cid": "82",
        "category_name": "Shivaji Maharaj",
        "category_image": "",
        "start_color": "FF2319",
        "end_color": "6772FF",
        "show_on_home": "0",
        "status": "1"
    },
    {
        "cid": "83",
        "category_name": "Tv Serial",
        "category_image": "",
        "start_color": "FF2319",
        "end_color": "6772FF",
        "show_on_home": "0",
        "status": "1"
    },
    {
        "cid": "84",
        "category_name": "Festivals",
        "category_image": "",
        "start_color": "FF2319",
        "end_color": "6772FF",
        "show_on_home": "0",
        "status": "1"
    },
    {
        "cid": "85",
        "category_name": "Funny",
        "category_image": "",
        "start_color": "FF2319",
        "end_color": "6772FF",
        "show_on_home": "0",
        "status": "1"
    },
    {
        "cid": "86",
        "category_name": "God",
        "category_image": "",
        "start_color": "FF2319",
        "end_color": "6772FF",
        "show_on_home": "0",
        "status": "1"
    },
    {
        "cid": "87",
        "category_name": "Ganesh Chaturthi",
        "category_image": "",
        "start_color": "FF2319",
        "end_color": "6772FF",
        "show_on_home": "0",
        "status": "1"
    },
    {
        "cid": "88",
        "category_name": "Dialogue",
        "category_image": "",
        "start_color": "FF2319",
        "end_color": "6772FF",
        "show_on_home": "0",
        "status": "1"
    },
    {
        "cid": "89",
        "category_name": "Animated",
        "category_image": "",
        "start_color": "FF2319",
        "end_color": "6772FF",
        "show_on_home": "0",
        "status": "1"
    },
    {
        "cid": "90",
        "category_name": "Unplugged",
        "category_image": "",
        "start_color": "FF2319",
        "end_color": "6772FF",
        "show_on_home": "0",
        "status": "1"
    },
    {
        "cid": "91",
        "category_name": "Old Songs",
        "category_image": "",
        "start_color": "FF2319",
        "end_color": "6772FF",
        "show_on_home": "0",
        "status": "1"
    },
    {
        "cid": "92",
        "category_name": "Korean Mix",
        "category_image": "",
        "start_color": "FF2319",
        "end_color": "6772FF",
        "show_on_home": "0",
        "status": "1"
    },
    {
        "cid": "93",
        "category_name": "Happy New Year",
        "category_image": "",
        "start_color": "FF2319",
        "end_color": "6772FF",
        "show_on_home": "0",
        "status": "1"
    },
    {
        "cid": "94",
        "category_name": "Independence Day",
        "category_image": "",
        "start_color": "FF2319",
        "end_color": "6772FF",
        "show_on_home": "0",
        "status": "1"
    },
    {
        "cid": "95",
        "category_name": "Valentine Special",
        "category_image": "",
        "start_color": "FF2319",
        "end_color": "6772FF",
        "show_on_home": "0",
        "status": "1"
    },
    {
        "cid": "96",
        "category_name": "Hug Day",
        "category_image": "",
        "start_color": "FF2319",
        "end_color": "6772FF",
        "show_on_home": "0",
        "status": "1"
    },
    {
        "cid": "97",
        "category_name": "Promise Day",
        "category_image": "",
        "start_color": "FF2319",
        "end_color": "6772FF",
        "show_on_home": "0",
        "status": "1"
    },
    {
        "cid": "98",
        "category_name": "Teddy Day",
        "category_image": "",
        "start_color": "FF2319",
        "end_color": "6772FF",
        "show_on_home": "0",
        "status": "1"
    },
    {
        "cid": "99",
        "category_name": "Chocolate Day",
        "category_image": "",
        "start_color": "FF2319",
        "end_color": "6772FF",
        "show_on_home": "0",
        "status": "1"
    },
    {
        "cid": "100",
        "category_name": "Propose Day",
        "category_image": "",
        "start_color": "FF2319",
        "end_color": "6772FF",
        "show_on_home": "0",
        "status": "1"
    },
    {
        "cid": "101",
        "category_name": "Rose Day",
        "category_image": "",
        "start_color": "FF2319",
        "end_color": "6772FF",
        "show_on_home": "0",
        "status": "1"
    },
    {
        "cid": "102",
        "category_name": "Friendship Day",
        "category_image": "",
        "start_color": "FF2319",
        "end_color": "6772FF",
        "show_on_home": "0",
        "status": "1"
    },
    {
        "cid": "103",
        "category_name": "Emotional",
        "category_image": "",
        "start_color": "FF2319",
        "end_color": "6772FF",
        "show_on_home": "0",
        "status": "1"
    },
    {
        "cid": "104",
        "category_name": "Rainy Special",
        "category_image": "",
        "start_color": "FF2319",
        "end_color": "6772FF",
        "show_on_home": "0",
        "status": "1"
    },
    {
        "cid": "105",
        "category_name": "Makar Sankranti",
        "category_image": "",
        "start_color": "FF2319",
        "end_color": "6772FF",
        "show_on_home": "0",
        "status": "1"
    },
    {
        "cid": "106",
        "category_name": "Ekadashi Special",
        "category_image": "",
        "start_color": "FF2319",
        "end_color": "6772FF",
        "show_on_home": "0",
        "status": "1"
    },
    {
        "cid": "107",
        "category_name": "Guru Purnima",
        "category_image": "",
        "start_color": "FF2319",
        "end_color": "6772FF",
        "show_on_home": "0",
        "status": "1"
    },
    {
        "cid": "108",
        "category_name": "Attitude",
        "category_image": "",
        "start_color": "FF2319",
        "end_color": "6772FF",
        "show_on_home": "0",
        "status": "1"
    },
    {
        "cid": "109",
        "category_name": "Motivational",
        "category_image": "",
        "start_color": "FF2319",
        "end_color": "6772FF",
        "show_on_home": "0",
        "status": "1"
    }
]